Lab_3/simulation/qsim/Lab3.msim.vcd
$comment
	File created using the following command:
		vcd file Lab3.msim.vcd -direction
$end
$date
	Mon Mar  6 13:31:41 2023
$end
$version
	Questa Intel Starter FPGA Edition Version 2021.2
$end
$timescale
	1ps
$end

$scope module statemachine_vhd_vec_tst $end
$var wire 1 ! CLK $end
$var wire 1 " X $end

$scope module i1 $end
$var wire 1 # devoe $end
$var wire 1 $ devclrn $end
$var wire 1 % devpor $end
$var wire 1 & ww_devoe $end
$var wire 1 ' ww_devclrn $end
$var wire 1 ( ww_devpor $end
$var wire 1 ) ww_X $end
$var wire 1 * ww_CLK $end
$var wire 1 + ww_state [1] $end
$var wire 1 , ww_state [0] $end
$var wire 1 - ww_Y $end
$var wire 1 . \CLK~input_o\ $end
$var wire 1 / \CLK~inputCLKENA0_outclk\ $end
$var wire 1 0 \X~input_o\ $end
$var wire 1 1 \JKFF1|Qtemp~feeder_combout\ $end
$var wire 1 2 \JKFF1|Qtemp~DUPLICATE_q\ $end
$var wire 1 3 \Y~0_combout\ $end
$var wire 1 4 \JKFF2|Qtemp~feeder_combout\ $end
$var wire 1 5 \JKFF2|Qtemp~q\ $end
$var wire 1 6 \JKFF1|Qtemp~q\ $end
$var wire 1 7 \JKFF2|ALT_INV_Qtemp~q\ $end
$var wire 1 8 \JKFF1|ALT_INV_Qtemp~q\ $end
$var wire 1 9 \ALT_INV_Y~0_combout\ $end
$var wire 1 : \ALT_INV_X~input_o\ $end
$var wire 1 ; \JKFF1|ALT_INV_Qtemp~DUPLICATE_q\ $end
$upscope $end
$upscope $end
$enddefinitions $end
#0
$dumpvars
0!
1"
1#
1$
1%
1&
1'
1(
1)
0*
1-
0.
0/
10
01
02
13
14
05
06
17
18
09
0:
1;
1+
1,
$end
#10000
1!
0"
1*
0)
00
1.
1/
1:
15
03
07
19
11
13
04
09
0,
0-
14
1-
#20000
0!
0*
0.
0/
#30000
1!
1"
1*
1)
10
1.
1/
0:
12
16
03
0;
08
19
13
04
09
0+
0-
14
1-
#40000
0!
0*
0.
0/
#50000
1!
1*
1.
1/
#60000
0!
0*
0.
0/
#70000
1!
1*
1.
1/
#80000
0!
0"
0*
0)
00
0.
0/
1:
03
19
04
0-
#90000
1!
1*
1.
1/
05
17
01
13
09
1,
14
1-
#100000
0!
0*
0.
0/
#110000
1!
1"
1*
1)
10
1.
1/
0:
02
15
06
03
1;
07
18
19
11
04
1+
0,
0-
#120000
0!
0*
0.
0/
#130000
1!
0"
1*
0)
00
1.
1/
1:
12
05
16
13
0;
17
08
09
01
14
0+
1,
1-
#140000
0!
0*
0.
0/
#150000
1!
1"
1*
1)
10
1.
1/
0:
02
15
06
03
1;
07
18
19
11
04
1+
0,
0-
#160000
0!
0*
0.
0/
#170000
1!
1*
1.
1/
12
05
16
0;
17
08
01
0+
1,
#180000
0!
0*
0.
0/
#190000
1!
0"
1*
0)
00
1.
1/
1:
02
06
13
1;
18
09
03
14
19
1+
1-
04
0-
#200000
0!
1"
0*
1)
10
0.
0/
0:
13
09
14
1-
#210000
1!
1*
1.
1/
15
07
11
03
19
0,
04
0-
#220000
0!
0"
0*
0)
00
0.
0/
1:
13
09
14
1-
#230000
1!
1*
1.
1/
12
16
0;
08
03
19
0+
04
0-
#240000
0!
1"
0*
1)
10
0.
0/
0:
13
09
14
1-
#250000
1!
0"
1*
0)
00
1.
1/
1:
03
19
04
0-
#260000
0!
0*
0.
0/
#270000
1!
1"
1*
1)
10
1.
1/
0:
05
13
17
09
01
03
14
19
1,
1-
04
0-
#280000
0!
0"
0*
0)
00
0.
0/
1:
13
09
14
1-
#290000
1!
1"
1*
1)
10
1.
1/
0:
02
15
06
03
1;
07
18
19
11
04
1+
0,
0-
#300000
0!
0*
0.
0/
#310000
1!
0"
1*
0)
00
1.
1/
1:
12
05
16
13
0;
17
08
09
01
14
0+
1,
1-
#320000
0!
0*
0.
0/
#330000
1!
1"
1*
1)
10
1.
1/
0:
02
15
06
03
1;
07
18
19
11
04
1+
0,
0-
#340000
0!
0*
0.
0/
#350000
1!
1*
1.
1/
12
05
16
0;
17
08
01
0+
1,
#360000
0!
0"
0*
0)
00
0.
0/
1:
13
09
14
1-
#370000
1!
1"
1*
1)
10
1.
1/
0:
02
15
06
03
1;
07
18
19
11
04
1+
0,
0-
#380000
0!
0"
0*
0)
00
0.
0/
1:
13
09
14
1-
#390000
1!
1*
1.
1/
12
16
0;
08
03
19
0+
04
0-
#400000
0!
0*
0.
0/
#410000
1!
1*
1.
1/
05
17
01
13
09
1,
14
1-
#420000
0!
1"
0*
1)
10
0.
0/
0:
03
19
04
0-
#430000
1!
1*
1.
1/
02
06
1;
18
13
09
1+
14
1-
#440000
0!
0"
0*
0)
00
0.
0/
1:
03
19
04
0-
#450000
1!
1"
1*
1)
10
1.
1/
0:
13
09
14
1-
#460000
0!
0"
0*
0)
00
0.
0/
1:
03
19
04
0-
#470000
1!
1"
1*
1)
10
1.
1/
0:
13
09
14
1-
#480000
0!
0"
0*
0)
00
0.
0/
1:
03
19
04
0-
#490000
1!
1*
1.
1/
#500000
0!
1"
0*
1)
10
0.
0/
0:
13
09
14
1-
#510000
1!
1*
1.
1/
15
07
11
03
19
0,
04
0-
#520000
0!
0"
0*
0)
00
0.
0/
1:
13
09
14
1-
#530000
1!
1"
1*
1)
10
1.
1/
0:
12
16
03
0;
08
19
13
04
09
0+
0-
14
1-
#540000
0!
0*
0.
0/
#550000
1!
0"
1*
0)
00
1.
1/
1:
03
19
04
0-
#560000
0!
1"
0*
1)
10
0.
0/
0:
13
09
14
1-
#570000
1!
1*
1.
1/
#580000
0!
0"
0*
0)
00
0.
0/
1:
03
19
04
0-
#590000
1!
1"
1*
1)
10
1.
1/
0:
05
13
17
09
01
03
14
19
1,
1-
04
0-
#600000
0!
0"
0*
0)
00
0.
0/
1:
13
09
14
1-
#610000
1!
1*
1.
1/
02
15
06
1;
07
18
11
1+
0,
#620000
0!
1"
0*
1)
10
0.
0/
0:
03
19
04
0-
#630000
1!
1*
1.
1/
12
05
16
0;
17
08
01
0+
1,
#640000
0!
0*
0.
0/
#650000
1!
1*
1.
1/
02
06
1;
18
13
09
1+
14
1-
#660000
0!
0"
0*
0)
00
0.
0/
1:
03
19
04
0-
#670000
1!
1*
1.
1/
#680000
0!
0*
0.
0/
#690000
1!
1"
1*
1)
10
1.
1/
0:
13
09
14
1-
#700000
0!
0"
0*
0)
00
0.
0/
1:
03
19
04
0-
#710000
1!
1"
1*
1)
10
1.
1/
0:
13
09
14
1-
#720000
0!
0*
0.
0/
#730000
1!
1*
1.
1/
15
07
11
03
19
0,
04
0-
#740000
0!
0*
0.
0/
#750000
1!
1*
1.
1/
12
05
16
0;
17
08
01
0+
1,
#760000
0!
0"
0*
0)
00
0.
0/
1:
13
09
14
1-
#770000
1!
1*
1.
1/
02
15
06
1;
07
18
11
1+
0,
#780000
0!
0*
0.
0/
#790000
1!
1*
1.
1/
12
16
0;
08
03
19
0+
04
0-
#800000
0!
1"
0*
1)
10
0.
0/
0:
13
09
14
1-
#810000
1!
0"
1*
0)
00
1.
1/
1:
03
19
04
0-
#820000
0!
0*
0.
0/
#830000
1!
1*
1.
1/
05
17
01
13
09
1,
14
1-
#840000
0!
1"
0*
1)
10
0.
0/
0:
03
19
04
0-
#850000
1!
1*
1.
1/
02
06
1;
18
13
09
1+
14
1-
#860000
0!
0"
0*
0)
00
0.
0/
1:
03
19
04
0-
#870000
1!
1*
1.
1/
#880000
0!
1"
0*
1)
10
0.
0/
0:
13
09
14
1-
#890000
1!
0"
1*
0)
00
1.
1/
1:
15
03
07
19
11
13
04
09
0,
0-
14
1-
#900000
0!
0*
0.
0/
#910000
1!
1*
1.
1/
12
16
0;
08
03
19
0+
04
0-
#920000
0!
1"
0*
1)
10
0.
0/
0:
13
09
14
1-
#930000
1!
0"
1*
0)
00
1.
1/
1:
03
19
04
0-
#940000
0!
0*
0.
0/
#950000
1!
1"
1*
1)
10
1.
1/
0:
05
13
17
09
01
03
14
19
1,
1-
04
0-
#960000
0!
0*
0.
0/
#970000
1!
0"
1*
0)
00
1.
1/
1:
02
06
13
1;
18
09
03
14
19
1+
1-
04
0-
#980000
0!
0*
0.
0/
#990000
1!
1"
1*
1)
10
1.
1/
0:
13
09
14
1-
