Lab_6/simulation/qsim/Lab6ShairUmama.msim.vcd
$comment
	File created using the following command:
		vcd file Lab6ShairUmama.msim.vcd -direction
$end
$date
	Tue Apr  4 09:17:36 2023
$end
$version
	Questa Intel Starter FPGA Edition Version 2021.2
$end
$timescale
	1ps
$end

$scope module counter26bit_vhd_vec_tst $end
$var wire 1 ! clk $end
$var wire 1 " clrb $end
$var wire 1 # enb $end
$var wire 1 $ q [25] $end
$var wire 1 % q [24] $end
$var wire 1 & q [23] $end
$var wire 1 ' q [22] $end
$var wire 1 ( q [21] $end
$var wire 1 ) q [20] $end
$var wire 1 * q [19] $end
$var wire 1 + q [18] $end
$var wire 1 , q [17] $end
$var wire 1 - q [16] $end
$var wire 1 . q [15] $end
$var wire 1 / q [14] $end
$var wire 1 0 q [13] $end
$var wire 1 1 q [12] $end
$var wire 1 2 q [11] $end
$var wire 1 3 q [10] $end
$var wire 1 4 q [9] $end
$var wire 1 5 q [8] $end
$var wire 1 6 q [7] $end
$var wire 1 7 q [6] $end
$var wire 1 8 q [5] $end
$var wire 1 9 q [4] $end
$var wire 1 : q [3] $end
$var wire 1 ; q [2] $end
$var wire 1 < q [1] $end
$var wire 1 = q [0] $end

$scope module i1 $end
$var wire 1 > gnd $end
$var wire 1 ? devoe $end
$var wire 1 @ devclrn $end
$var wire 1 A devpor $end
$var wire 1 B ww_devoe $end
$var wire 1 C ww_devclrn $end
$var wire 1 D ww_devpor $end
$var wire 1 E ww_clk $end
$var wire 1 F ww_clrb $end
$var wire 1 G ww_enb $end
$var wire 1 H ww_q [25] $end
$var wire 1 I ww_q [24] $end
$var wire 1 J ww_q [23] $end
$var wire 1 K ww_q [22] $end
$var wire 1 L ww_q [21] $end
$var wire 1 M ww_q [20] $end
$var wire 1 N ww_q [19] $end
$var wire 1 O ww_q [18] $end
$var wire 1 P ww_q [17] $end
$var wire 1 Q ww_q [16] $end
$var wire 1 R ww_q [15] $end
$var wire 1 S ww_q [14] $end
$var wire 1 T ww_q [13] $end
$var wire 1 U ww_q [12] $end
$var wire 1 V ww_q [11] $end
$var wire 1 W ww_q [10] $end
$var wire 1 X ww_q [9] $end
$var wire 1 Y ww_q [8] $end
$var wire 1 Z ww_q [7] $end
$var wire 1 [ ww_q [6] $end
$var wire 1 \ ww_q [5] $end
$var wire 1 ] ww_q [4] $end
$var wire 1 ^ ww_q [3] $end
$var wire 1 _ ww_q [2] $end
$var wire 1 ` ww_q [1] $end
$var wire 1 a ww_q [0] $end
$var wire 1 b \clk~input_o\ $end
$var wire 1 c \clk~inputCLKENA0_outclk\ $end
$var wire 1 d \Add0~1_sumout\ $end
$var wire 1 e \clrb~input_o\ $end
$var wire 1 f \Add0~2\ $end
$var wire 1 g \Add0~5_sumout\ $end
$var wire 1 h \Add0~6\ $end
$var wire 1 i \Add0~9_sumout\ $end
$var wire 1 j \Add0~10\ $end
$var wire 1 k \Add0~13_sumout\ $end
$var wire 1 l \Add0~14\ $end
$var wire 1 m \Add0~17_sumout\ $end
$var wire 1 n \Add0~18\ $end
$var wire 1 o \Add0~21_sumout\ $end
$var wire 1 p \Add0~22\ $end
$var wire 1 q \Add0~25_sumout\ $end
$var wire 1 r \Add0~26\ $end
$var wire 1 s \Add0~29_sumout\ $end
$var wire 1 t \Add0~30\ $end
$var wire 1 u \Add0~33_sumout\ $end
$var wire 1 v \Add0~34\ $end
$var wire 1 w \Add0~37_sumout\ $end
$var wire 1 x \Add0~38\ $end
$var wire 1 y \Add0~41_sumout\ $end
$var wire 1 z \Add0~42\ $end
$var wire 1 { \Add0~45_sumout\ $end
$var wire 1 | \Add0~46\ $end
$var wire 1 } \Add0~49_sumout\ $end
$var wire 1 ~ \Add0~50\ $end
$var wire 1 !! \Add0~53_sumout\ $end
$var wire 1 "! \Add0~54\ $end
$var wire 1 #! \Add0~57_sumout\ $end
$var wire 1 $! \Add0~58\ $end
$var wire 1 %! \Add0~61_sumout\ $end
$var wire 1 &! \Add0~62\ $end
$var wire 1 '! \Add0~65_sumout\ $end
$var wire 1 (! \Add0~66\ $end
$var wire 1 )! \Add0~69_sumout\ $end
$var wire 1 *! \Add0~70\ $end
$var wire 1 +! \Add0~73_sumout\ $end
$var wire 1 ,! \Add0~74\ $end
$var wire 1 -! \Add0~77_sumout\ $end
$var wire 1 .! \Add0~78\ $end
$var wire 1 /! \Add0~81_sumout\ $end
$var wire 1 0! \Add0~82\ $end
$var wire 1 1! \Add0~85_sumout\ $end
$var wire 1 2! \Add0~86\ $end
$var wire 1 3! \Add0~89_sumout\ $end
$var wire 1 4! \Add0~90\ $end
$var wire 1 5! \Add0~93_sumout\ $end
$var wire 1 6! \Equal0~1_combout\ $end
$var wire 1 7! \enb~input_o\ $end
$var wire 1 8! \Add0~94\ $end
$var wire 1 9! \Add0~97_sumout\ $end
$var wire 1 :! \Add0~98\ $end
$var wire 1 ;! \Add0~101_sumout\ $end
$var wire 1 <! \Equal0~0_combout\ $end
$var wire 1 =! \Equal0~2_combout\ $end
$var wire 1 >! \Equal0~4_combout\ $end
$var wire 1 ?! \cnt[0]~0_combout\ $end
$var wire 1 @! \Equal0~3_combout\ $end
$var wire 1 A! \Equal0~5_combout\ $end
$var wire 1 B! cnt [25] $end
$var wire 1 C! cnt [24] $end
$var wire 1 D! cnt [23] $end
$var wire 1 E! cnt [22] $end
$var wire 1 F! cnt [21] $end
$var wire 1 G! cnt [20] $end
$var wire 1 H! cnt [19] $end
$var wire 1 I! cnt [18] $end
$var wire 1 J! cnt [17] $end
$var wire 1 K! cnt [16] $end
$var wire 1 L! cnt [15] $end
$var wire 1 M! cnt [14] $end
$var wire 1 N! cnt [13] $end
$var wire 1 O! cnt [12] $end
$var wire 1 P! cnt [11] $end
$var wire 1 Q! cnt [10] $end
$var wire 1 R! cnt [9] $end
$var wire 1 S! cnt [8] $end
$var wire 1 T! cnt [7] $end
$var wire 1 U! cnt [6] $end
$var wire 1 V! cnt [5] $end
$var wire 1 W! cnt [4] $end
$var wire 1 X! cnt [3] $end
$var wire 1 Y! cnt [2] $end
$var wire 1 Z! cnt [1] $end
$var wire 1 [! cnt [0] $end
$var wire 1 \! ALT_INV_cnt [25] $end
$var wire 1 ]! ALT_INV_cnt [24] $end
$var wire 1 ^! ALT_INV_cnt [23] $end
$var wire 1 _! ALT_INV_cnt [22] $end
$var wire 1 `! ALT_INV_cnt [21] $end
$var wire 1 a! ALT_INV_cnt [20] $end
$var wire 1 b! ALT_INV_cnt [19] $end
$var wire 1 c! ALT_INV_cnt [18] $end
$var wire 1 d! ALT_INV_cnt [17] $end
$var wire 1 e! ALT_INV_cnt [16] $end
$var wire 1 f! ALT_INV_cnt [15] $end
$var wire 1 g! ALT_INV_cnt [14] $end
$var wire 1 h! ALT_INV_cnt [13] $end
$var wire 1 i! ALT_INV_cnt [12] $end
$var wire 1 j! ALT_INV_cnt [11] $end
$var wire 1 k! ALT_INV_cnt [10] $end
$var wire 1 l! ALT_INV_cnt [9] $end
$var wire 1 m! ALT_INV_cnt [8] $end
$var wire 1 n! ALT_INV_cnt [7] $end
$var wire 1 o! ALT_INV_cnt [6] $end
$var wire 1 p! ALT_INV_cnt [5] $end
$var wire 1 q! ALT_INV_cnt [4] $end
$var wire 1 r! ALT_INV_cnt [3] $end
$var wire 1 s! ALT_INV_cnt [2] $end
$var wire 1 t! ALT_INV_cnt [1] $end
$var wire 1 u! ALT_INV_cnt [0] $end
$var wire 1 v! \ALT_INV_enb~input_o\ $end
$var wire 1 w! \ALT_INV_Equal0~4_combout\ $end
$var wire 1 x! \ALT_INV_Equal0~3_combout\ $end
$var wire 1 y! \ALT_INV_Equal0~2_combout\ $end
$var wire 1 z! \ALT_INV_Equal0~1_combout\ $end
$var wire 1 {! \ALT_INV_Equal0~0_combout\ $end
$upscope $end
$upscope $end
$enddefinitions $end
#0
$dumpvars
0!
1"
1#
0>
1?
1@
1A
1B
1C
1D
0E
1F
1G
0b
0c
1d
1e
0f
0g
0h
0i
0j
0k
0l
0m
0n
0o
0p
0q
0r
0s
0t
0u
0v
0w
0x
0y
0z
0{
0|
0}
0~
0!!
0"!
0#!
0$!
0%!
0&!
0'!
0(!
0)!
0*!
0+!
0,!
0-!
0.!
0/!
00!
01!
02!
03!
04!
05!
16!
17!
08!
09!
0:!
0;!
1<!
1=!
1>!
1?!
0@!
0A!
0v!
0w!
1x!
0y!
0z!
0{!
0H
0I
0J
0K
0L
0M
0N
0O
0P
0Q
0R
0S
0T
0U
0V
0W
0X
0Y
0Z
0[
0\
0]
0^
0_
0`
0a
0B!
0C!
0D!
0E!
0F!
0G!
0H!
0I!
0J!
0K!
0L!
0M!
0N!
0O!
0P!
0Q!
0R!
0S!
0T!
0U!
0V!
0W!
0X!
0Y!
0Z!
0[!
1\!
1]!
1^!
1_!
1`!
1a!
1b!
1c!
1d!
1e!
1f!
1g!
1h!
1i!
1j!
1k!
1l!
1m!
1n!
1o!
1p!
1q!
1r!
1s!
1t!
1u!
0$
0%
0&
0'
0(
0)
0*
0+
0,
0-
0.
0/
00
01
02
03
04
05
06
07
08
09
0:
0;
0<
0=
$end
#5000
1!
1E
1b
1c
1[!
0u!
0d
1f
1@!
0x!
1a
1g
1A!
1=
#10000
0!
0E
0b
0c
#15000
1!
1E
1b
1c
0[!
1u!
1d
0f
0@!
1x!
0a
0g
0A!
0=
#20000
0!
0E
0b
0c
#25000
1!
1E
1b
1c
1[!
0u!
0d
1f
1@!
0x!
1a
1g
1A!
1=
#30000
0!
0E
0b
0c
#35000
1!
1E
1b
1c
0[!
1u!
1d
0f
0@!
1x!
0a
0g
0A!
0=
#40000
0!
0E
0b
0c
#45000
1!
1E
1b
1c
1[!
0u!
0d
1f
1@!
0x!
1a
1g
1A!
1=
#50000
0!
0E
0b
0c
#55000
1!
1E
1b
1c
0[!
1u!
1d
0f
0@!
1x!
0a
0g
0A!
0=
#60000
0!
0E
0b
0c
#65000
1!
1E
1b
1c
1[!
0u!
0d
1f
1@!
0x!
1a
1g
1A!
1=
#70000
0!
0E
0b
0c
#75000
1!
1E
1b
1c
0[!
1u!
1d
0f
0@!
1x!
0a
0g
0A!
0=
#80000
0!
0E
0b
0c
#85000
1!
1E
1b
1c
1[!
0u!
0d
1f
1@!
0x!
1a
1g
1A!
1=
#90000
0!
0E
0b
0c
#95000
1!
1E
1b
1c
0[!
1u!
1d
0f
0@!
1x!
0a
0g
0A!
0=
#100000
0!
0E
0b
0c
#105000
1!
1E
1b
1c
1[!
0u!
0d
1f
1@!
0x!
1a
1g
1A!
1=
#110000
0!
0E
0b
0c
#115000
1!
1E
1b
1c
0[!
1u!
1d
0f
0@!
1x!
0a
0g
0A!
0=
#120000
0!
0E
0b
0c
#125000
1!
1E
1b
1c
1[!
0u!
0d
1f
1@!
0x!
1a
1g
1A!
1=
#130000
0!
0E
0b
0c
#135000
1!
1E
1b
1c
0[!
1u!
1d
0f
0@!
1x!
0a
0g
0A!
0=
#140000
0!
0E
0b
0c
#145000
1!
1E
1b
1c
1[!
0u!
0d
1f
1@!
0x!
1a
1g
1A!
1=
#150000
0!
0E
0b
0c
#155000
1!
1E
1b
1c
0[!
1u!
1d
0f
0@!
1x!
0a
0g
0A!
0=
#160000
0!
0E
0b
0c
#165000
1!
1E
1b
1c
1[!
0u!
0d
1f
1@!
0x!
1a
1g
1A!
1=
#170000
0!
0E
0b
0c
#175000
1!
1E
1b
1c
0[!
1u!
1d
0f
0@!
1x!
0a
0g
0A!
0=
#180000
0!
0E
0b
0c
#185000
1!
1E
1b
1c
1[!
0u!
0d
1f
1@!
0x!
1a
1g
1A!
1=
#190000
0!
0E
0b
0c
#195000
1!
1E
1b
1c
0[!
1u!
1d
0f
0@!
1x!
0a
0g
0A!
0=
#200000
0!
0E
0b
0c
#205000
1!
1E
1b
1c
1[!
0u!
0d
1f
1@!
0x!
1a
1g
1A!
1=
#210000
0!
0E
0b
0c
#215000
1!
1E
1b
1c
0[!
1u!
1d
0f
0@!
1x!
0a
0g
0A!
0=
#220000
0!
0E
0b
0c
#225000
1!
1E
1b
1c
1[!
0u!
0d
1f
1@!
0x!
1a
1g
1A!
1=
#230000
0!
0E
0b
0c
#235000
1!
1E
1b
1c
0[!
1u!
1d
0f
0@!
1x!
0a
0g
0A!
0=
#240000
0!
0E
0b
0c
#245000
1!
1E
1b
1c
1[!
0u!
0d
1f
1@!
0x!
1a
1g
1A!
1=
#250000
0!
0E
0b
0c
#255000
1!
1E
1b
1c
0[!
1u!
1d
0f
0@!
1x!
0a
0g
0A!
0=
#260000
0!
0E
0b
0c
#265000
1!
1E
1b
1c
1[!
0u!
0d
1f
1@!
0x!
1a
1g
1A!
1=
#270000
0!
0E
0b
0c
#275000
1!
1E
1b
1c
0[!
1u!
1d
0f
0@!
1x!
0a
0g
0A!
0=
#280000
0!
0E
0b
0c
#285000
1!
1E
1b
1c
1[!
0u!
0d
1f
1@!
0x!
1a
1g
1A!
1=
#290000
0!
0E
0b
0c
#295000
1!
1E
1b
1c
0[!
1u!
1d
0f
0@!
1x!
0a
0g
0A!
0=
#300000
0!
0E
0b
0c
#305000
1!
1E
1b
1c
1[!
0u!
0d
1f
1@!
0x!
1a
1g
1A!
1=
#310000
0!
0E
0b
0c
#315000
1!
1E
1b
1c
0[!
1u!
1d
0f
0@!
1x!
0a
0g
0A!
0=
#320000
0!
0E
0b
0c
#325000
1!
1E
1b
1c
1[!
0u!
0d
1f
1@!
0x!
1a
1g
1A!
1=
#330000
0!
0E
0b
0c
#335000
1!
1E
1b
1c
0[!
1u!
1d
0f
0@!
1x!
0a
0g
0A!
0=
#340000
0!
0E
0b
0c
#345000
1!
1E
1b
1c
1[!
0u!
0d
1f
1@!
0x!
1a
1g
1A!
1=
#350000
0!
0E
0b
0c
#355000
1!
1E
1b
1c
0[!
1u!
1d
0f
0@!
1x!
0a
0g
0A!
0=
#360000
0!
0E
0b
0c
#365000
1!
1E
1b
1c
1[!
0u!
0d
1f
1@!
0x!
1a
1g
1A!
1=
#370000
0!
0E
0b
0c
#375000
1!
1E
1b
1c
0[!
1u!
1d
0f
0@!
1x!
0a
0g
0A!
0=
#380000
0!
0E
0b
0c
#385000
1!
1E
1b
1c
1[!
0u!
0d
1f
1@!
0x!
1a
1g
1A!
1=
#390000
0!
0E
0b
0c
#395000
1!
1E
1b
1c
0[!
1u!
1d
0f
0@!
1x!
0a
0g
0A!
0=
#400000
0!
0E
0b
0c
#405000
1!
1E
1b
1c
1[!
0u!
0d
1f
1@!
0x!
1a
1g
1A!
1=
#410000
0!
0E
0b
0c
#415000
1!
1E
1b
1c
0[!
1u!
1d
0f
0@!
1x!
0a
0g
0A!
0=
#420000
0!
0E
0b
0c
#425000
1!
1E
1b
1c
1[!
0u!
0d
1f
1@!
0x!
1a
1g
1A!
1=
#430000
0!
0E
0b
0c
#435000
1!
1E
1b
1c
0[!
1u!
1d
0f
0@!
1x!
0a
0g
0A!
0=
#440000
0!
0E
0b
0c
#445000
1!
1E
1b
1c
1[!
0u!
0d
1f
1@!
0x!
1a
1g
1A!
1=
#450000
0!
0E
0b
0c
#455000
1!
1E
1b
1c
0[!
1u!
1d
0f
0@!
1x!
0a
0g
0A!
0=
#460000
0!
0E
0b
0c
#465000
1!
1E
1b
1c
1[!
0u!
0d
1f
1@!
0x!
1a
1g
1A!
1=
#470000
0!
0E
0b
0c
#475000
1!
1E
1b
1c
0[!
1u!
1d
0f
0@!
1x!
0a
0g
0A!
0=
#480000
0!
0E
0b
0c
#485000
1!
1E
1b
1c
1[!
0u!
0d
1f
1@!
0x!
1a
1g
1A!
1=
#490000
0!
0E
0b
0c
#495000
1!
1E
1b
1c
0[!
1u!
1d
0f
0@!
1x!
0a
0g
0A!
0=
#500000
0!
0E
0b
0c
#505000
1!
1E
1b
1c
1[!
0u!
0d
1f
1@!
0x!
1a
1g
1A!
1=
#510000
0!
0E
0b
0c
#515000
1!
1E
1b
1c
0[!
1u!
1d
0f
0@!
1x!
0a
0g
0A!
0=
#520000
0!
0E
0b
0c
#525000
1!
1E
1b
1c
1[!
0u!
0d
1f
1@!
0x!
1a
1g
1A!
1=
#530000
0!
0E
0b
0c
#535000
1!
1E
1b
1c
0[!
1u!
1d
0f
0@!
1x!
0a
0g
0A!
0=
#540000
0!
0E
0b
0c
#545000
1!
1E
1b
1c
1[!
0u!
0d
1f
1@!
0x!
1a
1g
1A!
1=
#550000
0!
0E
0b
0c
#555000
1!
1E
1b
1c
0[!
1u!
1d
0f
0@!
1x!
0a
0g
0A!
0=
#560000
0!
0E
0b
0c
#565000
1!
1E
1b
1c
1[!
0u!
0d
1f
1@!
0x!
1a
1g
1A!
1=
#570000
0!
0E
0b
0c
#575000
1!
1E
1b
1c
0[!
1u!
1d
0f
0@!
1x!
0a
0g
0A!
0=
#580000
0!
0E
0b
0c
#585000
1!
1E
1b
1c
1[!
0u!
0d
1f
1@!
0x!
1a
1g
1A!
1=
#590000
0!
0E
0b
0c
#595000
1!
1E
1b
1c
0[!
1u!
1d
0f
0@!
1x!
0a
0g
0A!
0=
#600000
0!
0E
0b
0c
#605000
1!
1E
1b
1c
1[!
0u!
0d
1f
1@!
0x!
1a
1g
1A!
1=
#610000
0!
0E
0b
0c
#615000
1!
1E
1b
1c
0[!
1u!
1d
0f
0@!
1x!
0a
0g
0A!
0=
#620000
0!
0E
0b
0c
#625000
1!
1E
1b
1c
1[!
0u!
0d
1f
1@!
0x!
1a
1g
1A!
1=
#630000
0!
0E
0b
0c
#635000
1!
1E
1b
1c
0[!
1u!
1d
0f
0@!
1x!
0a
0g
0A!
0=
#640000
0!
0E
0b
0c
#645000
1!
1E
1b
1c
1[!
0u!
0d
1f
1@!
0x!
1a
1g
1A!
1=
#650000
0!
0E
0b
0c
#655000
1!
1E
1b
1c
0[!
1u!
1d
0f
0@!
1x!
0a
0g
0A!
0=
#660000
0!
0E
0b
0c
#665000
1!
1E
1b
1c
1[!
0u!
0d
1f
1@!
0x!
1a
1g
1A!
1=
#670000
0!
0E
0b
0c
#675000
1!
1E
1b
1c
0[!
1u!
1d
0f
0@!
1x!
0a
0g
0A!
0=
#680000
0!
0E
0b
0c
#685000
1!
1E
1b
1c
1[!
0u!
0d
1f
1@!
0x!
1a
1g
1A!
1=
#690000
0!
0E
0b
0c
#695000
1!
1E
1b
1c
0[!
1u!
1d
0f
0@!
1x!
0a
0g
0A!
0=
#700000
0!
0E
0b
0c
#705000
1!
1E
1b
1c
1[!
0u!
0d
1f
1@!
0x!
1a
1g
1A!
1=
#710000
0!
0E
0b
0c
#715000
1!
1E
1b
1c
0[!
1u!
1d
0f
0@!
1x!
0a
0g
0A!
0=
#720000
0!
0E
0b
0c
#725000
1!
1E
1b
1c
1[!
0u!
0d
1f
1@!
0x!
1a
1g
1A!
1=
#730000
0!
0E
0b
0c
#735000
1!
1E
1b
1c
0[!
1u!
1d
0f
0@!
1x!
0a
0g
0A!
0=
#740000
0!
0E
0b
0c
#745000
1!
1E
1b
1c
1[!
0u!
0d
1f
1@!
0x!
1a
1g
1A!
1=
#750000
0!
0E
0b
0c
#755000
1!
1E
1b
1c
0[!
1u!
1d
0f
0@!
1x!
0a
0g
0A!
0=
#760000
0!
0E
0b
0c
#765000
1!
1E
1b
1c
1[!
0u!
0d
1f
1@!
0x!
1a
1g
1A!
1=
#770000
0!
0E
0b
0c
#775000
1!
1E
1b
1c
0[!
1u!
1d
0f
0@!
1x!
0a
0g
0A!
0=
#780000
0!
0E
0b
0c
#785000
1!
1E
1b
1c
1[!
0u!
0d
1f
1@!
0x!
1a
1g
1A!
1=
#790000
0!
0E
0b
0c
#795000
1!
1E
1b
1c
0[!
1u!
1d
0f
0@!
1x!
0a
0g
0A!
0=
#800000
0!
0E
0b
0c
#805000
1!
1E
1b
1c
1[!
0u!
0d
1f
1@!
0x!
1a
1g
1A!
1=
#810000
0!
0E
0b
0c
#815000
1!
1E
1b
1c
0[!
1u!
1d
0f
0@!
1x!
0a
0g
0A!
0=
#820000
0!
0E
0b
0c
#825000
1!
1E
1b
1c
1[!
0u!
0d
1f
1@!
0x!
1a
1g
1A!
1=
#830000
0!
0E
0b
0c
#835000
1!
1E
1b
1c
0[!
1u!
1d
0f
0@!
1x!
0a
0g
0A!
0=
#840000
0!
0E
0b
0c
#845000
1!
1E
1b
1c
1[!
0u!
0d
1f
1@!
0x!
1a
1g
1A!
1=
#850000
0!
0E
0b
0c
#855000
1!
1E
1b
1c
0[!
1u!
1d
0f
0@!
1x!
0a
0g
0A!
0=
#860000
0!
0E
0b
0c
#865000
1!
1E
1b
1c
1[!
0u!
0d
1f
1@!
0x!
1a
1g
1A!
1=
#870000
0!
0E
0b
0c
#875000
1!
1E
1b
1c
0[!
1u!
1d
0f
0@!
1x!
0a
0g
0A!
0=
#880000
0!
0E
0b
0c
#885000
1!
1E
1b
1c
1[!
0u!
0d
1f
1@!
0x!
1a
1g
1A!
1=
#890000
0!
0E
0b
0c
#895000
1!
1E
1b
1c
0[!
1u!
1d
0f
0@!
1x!
0a
0g
0A!
0=
#900000
0!
0E
0b
0c
#905000
1!
1E
1b
1c
1[!
0u!
0d
1f
1@!
0x!
1a
1g
1A!
1=
#910000
0!
0E
0b
0c
#915000
1!
1E
1b
1c
0[!
1u!
1d
0f
0@!
1x!
0a
0g
0A!
0=
#920000
0!
0E
0b
0c
#925000
1!
1E
1b
1c
1[!
0u!
0d
1f
1@!
0x!
1a
1g
1A!
1=
#930000
0!
0E
0b
0c
#935000
1!
1E
1b
1c
0[!
1u!
1d
0f
0@!
1x!
0a
0g
0A!
0=
#940000
0!
0E
0b
0c
#945000
1!
1E
1b
1c
1[!
0u!
0d
1f
1@!
0x!
1a
1g
1A!
1=
#950000
0!
0E
0b
0c
#955000
1!
1E
1b
1c
0[!
1u!
1d
0f
0@!
1x!
0a
0g
0A!
0=
#960000
0!
0E
0b
0c
#965000
1!
1E
1b
1c
1[!
0u!
0d
1f
1@!
0x!
1a
1g
1A!
1=
#970000
0!
0E
0b
0c
#975000
1!
1E
1b
1c
0[!
1u!
1d
0f
0@!
1x!
0a
0g
0A!
0=
#980000
0!
0E
0b
0c
#985000
1!
1E
1b
1c
1[!
0u!
0d
1f
1@!
0x!
1a
1g
1A!
1=
#990000
0!
0E
0b
0c
#995000
1!
1E
1b
1c
0[!
1u!
1d
0f
0@!
1x!
0a
0g
0A!
0=
